{
  "name": "legko_3",
  "version": "1.0.0",
  "description": "",
  "main": "index.js",
  "scripts": {
    "build:prod": "webpack --config ./webpack.configs/prod.config.js",
    "build:dev": "webpack-dev-server --config ./webpack.configs/dev.config.js"
  },
  "author": "",
  "license": "ISC",
  "dependencies": {
    "gulp": "^3.9.1",
    "laravel-elixir": "^6.0.0-18",
    "angular": "^1.7.5",
    "webpack": "^4.26.0",
    "laravel-elixir-webpack-official": "^1.0.10"
  }
}
